<svg xmlns="http://www.w3.org/2000/svg" xmlns:xlink="http://www.w3.org/1999/xlink" width="711.959" height="162.66" viewBox="0 0 711.959 162.66">
  <defs>
    <linearGradient id="linear-gradient" x1="0.496" y1="0.023" x2="0.502" y2="1.198" gradientUnits="objectBoundingBox">
      <stop offset="0" stop-color="#ff5b5b"/>
      <stop offset="0" stop-color="#ff5353"/>
      <stop offset="1" stop-color="#822424"/>
    </linearGradient>
    <linearGradient id="linear-gradient-2" x1="0.475" y1="-0.07" x2="0.523" y2="1.042" gradientUnits="objectBoundingBox">
      <stop offset="0" stop-color="#3cb83f"/>
      <stop offset="1" stop-color="#278d3e"/>
    </linearGradient>
  </defs>
  <g id="Group_5" data-name="Group 5" transform="translate(-18.411 257.477)">
    <path id="Path_1" data-name="Path 1" d="M603.278,382.343v6.8H202.991V369.011H177.63V280.9h55.91v88.113H209.793v13.331Z" transform="translate(-151.928 -489.497)" fill="url(#linear-gradient)"/>
    <rect id="Rectangle_2" data-name="Rectangle 2" width="55.916" height="133.486" transform="translate(100.594 -257.477)" fill="url(#linear-gradient-2)"/>
    <path id="Path_2" data-name="Path 2" d="M186.773,329.413l25.27-67.387L258.269,287.5,281.9,246.627l8.218,5.753L262.378,302.5l-45.4-25.476-25.885,53.015Z" transform="translate(-168.362 -484.515)" fill="#fff"/>
    <path id="Path_3" data-name="Path 3" d="M294.8,237.281l-20.48,4.388,23.455,16.345L294.8,237.281l-20.48,4.388,23.455,16.345Z" transform="translate(-169.223 -483.582)" fill="#fff"/>
    <g id="Group_1" data-name="Group 1" transform="translate(-148 -529.474)">
      <path id="Path_4" data-name="Path 4" d="M304.212,383.174q14.987,0,24.5-11.154l13.037,12.626q-15.515,16.427-36.563,16.424t-34.671-12.5q-13.623-12.5-13.623-31.563A41.4,41.4,0,0,1,270.778,325.2q13.883-12.746,33.956-12.748,22.415,0,37.538,16.058L329.63,341.992q-9.649-11.275-23.985-11.276a28.965,28.965,0,0,0-19.615,7.048q-8.15,7.049-8.147,19t7.69,19.182A26.218,26.218,0,0,0,304.212,383.174Z" fill="#fff"/>
      <path id="Path_5" data-name="Path 5" d="M359.527,340.509q0,15.211-13.278,19.168l16.092,22.335h-13.19l-14.685-20.664h-13.63v20.664H310.459V320.547h22.863q14.069,0,20.137,4.748T359.527,340.509Zm-13.8,8.7q3.166-2.728,3.164-8.751t-3.253-8.266q-3.255-2.241-11.608-2.24h-13.19V351.94h12.926Q342.555,351.94,345.722,349.214Z" transform="translate(37.467 5.662)" fill="#fff"/>
      <path id="Path_6" data-name="Path 6" d="M375.438,382.012H364.886V357.744l-22.863-37.2h11.344l16.794,27.963,16.8-27.963H398.3l-22.863,37.2Z" transform="translate(59.546 5.662)" fill="#fff"/>
      <path id="Path_7" data-name="Path 7" d="M421.247,325.911q6.419,5.364,6.419,16.531t-6.55,16.358q-6.554,5.19-20.093,5.189h-10.9v18.025H379.742V320.547h21.1Q414.826,320.547,421.247,325.911Zm-7.342,25.368q3.12-3.294,3.12-9.672t-3.956-9.014q-3.956-2.636-12.4-2.636H390.119v24.62h12.046Q410.781,354.578,413.905,351.279Z" transform="translate(85.93 5.662)" fill="#fff"/>
      <path id="Path_8" data-name="Path 8" d="M446.585,382.012H434.978l-24.709-61.465h11.606l18.909,45.9,18.905-45.9h11.606Z" transform="translate(107.283 5.662)" fill="#fff"/>
      <path id="Path_9" data-name="Path 9" d="M494.527,320.547v9.762h-32.8v16.267h29.457v9.232H461.729v16.444h33.854v9.76H451.352V320.547Z" transform="translate(136.02 5.662)" fill="#fff"/>
      <path id="Path_10" data-name="Path 10" d="M505.852,329.254a13.61,13.61,0,0,0-7.43,1.846,6.166,6.166,0,0,0-2.9,5.583,6.487,6.487,0,0,0,2.9,5.715q2.9,1.978,12.355,4.266t14.245,6.419q4.792,4.135,4.791,12.18a16.133,16.133,0,0,1-6.067,13.057q-6.065,5.014-15.914,5.014a37.392,37.392,0,0,1-25.591-9.939l6.507-7.824q9.322,8.089,19.347,8.09a13.2,13.2,0,0,0,7.957-2.155A6.744,6.744,0,0,0,519,365.789a6.416,6.416,0,0,0-2.772-5.539q-2.768-1.983-9.541-3.606a85.91,85.91,0,0,1-10.287-2.991,23.213,23.213,0,0,1-6.244-3.56q-5.453-4.13-5.45-12.663t6.2-13.147q6.2-4.614,15.343-4.616a36.872,36.872,0,0,1,11.7,1.934,30.586,30.586,0,0,1,10.024,5.454l-5.54,7.826a20.987,20.987,0,0,0-7.386-4.046A28.456,28.456,0,0,0,505.852,329.254Z" transform="translate(157.626 5.047)" fill="#fff"/>
      <path id="Path_11" data-name="Path 11" d="M543.391,330.044v51.969H533.014V330.044H514.372v-9.5h47.659v9.5Z" transform="translate(180.102 5.662)" fill="#fff"/>
      <path id="Path_12" data-name="Path 12" d="M601.125,374.144q-9.322,9.1-23.038,9.1t-23.04-9.1a32.273,32.273,0,0,1,0-45.375q9.32-9.1,23.04-9.1t23.038,9.1a32.273,32.273,0,0,1,0,45.375Zm-7.607-38.473a21.551,21.551,0,0,0-30.863,0,22.952,22.952,0,0,0,0,31.57,21.555,21.555,0,0,0,30.863,0,22.956,22.956,0,0,0,0-31.57Z" transform="translate(202.034 5.047)" fill="#fff"/>
      <path id="Path_13" data-name="Path 13" d="M640.586,340.509q0,15.211-13.278,19.168L643.4,382.012H630.21l-14.685-20.664H601.9v20.664H591.518V320.547h22.865q14.067,0,20.136,4.748T640.586,340.509Zm-13.8,8.7q3.166-2.728,3.166-8.751t-3.254-8.266q-3.255-2.241-11.608-2.24H601.9V351.94h12.926Q623.611,351.94,626.781,349.214Z" transform="translate(234.064 5.662)" fill="#fff"/>
    </g>
    <g id="Group_2" data-name="Group 2" transform="translate(108 -490)">
      <path id="Path_14" data-name="Path 14" d="M354.744,377.266h2.991v17.715h-2.991Z" fill="#fff"/>
      <path id="Path_15" data-name="Path 15" d="M377.07,377.266h2.991v17.715h-3.244l-10.036-12.926v12.926H363.79V377.266h2.991l10.289,13.229Z" fill="#fff"/>
      <path id="Path_16" data-name="Path 16" d="M394.2,394.981h-3.345l-7.121-17.715h3.345l5.449,13.229,5.448-13.229h3.346Z" fill="#fff"/>
      <path id="Path_17" data-name="Path 17" d="M417.439,377.266v2.813h-9.454v4.689h8.49v2.66h-8.49v4.74h9.757v2.813H404.995V377.266Z" fill="#fff"/>
      <path id="Path_18" data-name="Path 18" d="M428.068,379.6a3.919,3.919,0,0,0-2.141.533,1.778,1.778,0,0,0-.837,1.609,1.873,1.873,0,0,0,.837,1.648,12.682,12.682,0,0,0,3.561,1.229,9.791,9.791,0,0,1,4.1,1.849,4.385,4.385,0,0,1,1.381,3.511,4.652,4.652,0,0,1-1.749,3.763,6.974,6.974,0,0,1-4.587,1.444,10.772,10.772,0,0,1-7.374-2.863l1.875-2.256a8.445,8.445,0,0,0,5.576,2.332,3.807,3.807,0,0,0,2.293-.621,1.943,1.943,0,0,0,.849-1.647,1.85,1.85,0,0,0-.8-1.6,8.371,8.371,0,0,0-2.75-1.039,24.732,24.732,0,0,1-2.965-.862,6.691,6.691,0,0,1-1.8-1.027,4.282,4.282,0,0,1-1.571-3.649,4.441,4.441,0,0,1,1.787-3.788,7.19,7.19,0,0,1,4.422-1.331,10.6,10.6,0,0,1,3.371.558,8.8,8.8,0,0,1,2.889,1.571l-1.6,2.256a6.031,6.031,0,0,0-2.128-1.167A8.21,8.21,0,0,0,428.068,379.6Z" fill="#fff"/>
      <path id="Path_19" data-name="Path 19" d="M446.5,380v14.978h-2.99V380h-5.372v-2.737h13.735V380Z" fill="#fff"/>
      <path id="Path_20" data-name="Path 20" d="M465.712,390.951l-1.775,4.03h-3.193l7.806-17.715h3.193l7.8,17.715h-3.192l-1.774-4.03Zm7.653-2.762-3.218-7.3-3.219,7.3Z" fill="#fff"/>
      <path id="Path_21" data-name="Path 21" d="M496.425,377.266h2.991v17.715h-3.244l-10.035-12.926v12.926h-2.992V377.266h2.992l10.288,13.229Z" fill="#fff"/>
      <path id="Path_22" data-name="Path 22" d="M518.877,379.585a8.26,8.26,0,0,1,2.561,6.45,8.682,8.682,0,0,1-2.484,6.538q-2.484,2.409-7.6,2.408h-5.881V377.266h6.083Q516.32,377.266,518.877,379.585Zm-.456,6.525q0-6.082-6.969-6.081h-2.99v12.139h3.319a7.144,7.144,0,0,0,4.93-1.534A5.758,5.758,0,0,0,518.421,386.11Z" fill="#fff"/>
      <path id="Path_23" data-name="Path 23" d="M533.372,394.981V377.266h2.991v14.876h8.084v2.839Z" fill="#fff"/>
      <path id="Path_24" data-name="Path 24" d="M561.3,377.266v2.813h-9.453v4.689h8.49v2.66h-8.49v4.74H561.6v2.813H548.855V377.266Z" fill="#fff"/>
      <path id="Path_25" data-name="Path 25" d="M569.078,390.951l-1.774,4.03h-3.193l7.8-17.715h3.194l7.8,17.715h-3.193l-1.774-4.03Zm7.653-2.762-3.219-7.3-3.217,7.3Z" fill="#fff"/>
      <path id="Path_26" data-name="Path 26" d="M600.653,383.018q0,4.385-3.827,5.526l4.639,6.437h-3.8l-4.232-5.956H589.5v5.956h-2.991V377.266H593.1q4.056,0,5.8,1.368A5.228,5.228,0,0,1,600.653,383.018Zm-3.979,2.51a3.16,3.16,0,0,0,.912-2.522,2.694,2.694,0,0,0-.938-2.382,6.231,6.231,0,0,0-3.344-.647h-3.8v6.336h3.725A5.485,5.485,0,0,0,596.674,385.528Z" fill="#fff"/>
      <path id="Path_27" data-name="Path 27" d="M619.381,377.266h2.989v17.715h-3.243l-10.036-12.926v12.926H606.1V377.266h2.991l10.29,13.229Z" fill="#fff"/>
    </g>
    <g id="Group_3" data-name="Group 3" transform="translate(-148 -493)">
      <rect id="Rectangle_3" data-name="Rectangle 3" width="522.719" height="2.769" transform="translate(354.744 366.696)" fill="#fff"/>
    </g>
  </g>
</svg>
